%YAML 1.1
%TAG !u! tag:unity3d.com,2011:
--- !u!1045 &1
EditorBuildSettings:
  m_ObjectHideFlags: 0
  serializedVersion: 2
  m_Scenes:
  - enabled: 1
    path: Assets/_src/prefabs/scenes/Scene00.unity
    guid: d1c3109bdb54ad54c8a2b2838528e640
  m_configObjects:
    Unity.XR.Oculus.Settings: {fileID: 11400000, guid: c6e7789083e558441bf402515a5cc9e1, type: 2}
    com.unity.xr.management.loader_settings: {fileID: 11400000, guid: 43b4410a4b7431c4cb9d79ffbe0a13b6, type: 2}
